{
  "lerna": "2.8.0",
  "npmClient": "yarn",
  "useWorkspaces": true,
  "version": "1.0.1",
  "commands": {
    "publish": {
      "allowBranch": "master",
      "message": "%s",
      "npmClient": "npm"
    }
  }
}
